%YAML 1.1
%TAG !u! tag:unity3d.com,2011:
--- !u!74 &7400000
AnimationClip:
  m_ObjectHideFlags: 0
  m_CorrespondingSourceObject: {fileID: 0}
  m_PrefabInternal: {fileID: 0}
  m_Name: Player_Walk
  serializedVersion: 6
  m_Legacy: 0
  m_Compressed: 0
  m_UseHighQualityCurve: 1
  m_RotationCurves: []
  m_CompressedRotationCurves: []
  m_EulerCurves: []
  m_PositionCurves: []
  m_ScaleCurves: []
  m_FloatCurves: []
  m_PPtrCurves:
  - curve:
    - time: 0
      value: {fileID: 21300000, guid: c5b20d9e47ac12248a1398395b1e929e, type: 3}
    - time: 0.05
      value: {fileID: 21300000, guid: 9f459fb85e250e44ba8c84a991ad5eab, type: 3}
    - time: 0.1
      value: {fileID: 21300000, guid: 26c63ac2132acfe44b9c63bd84ca1e20, type: 3}
    - time: 0.15
      value: {fileID: 21300000, guid: 465a764bc0f5d1941ba5b58f9a600ddb, type: 3}
    - time: 0.2
      value: {fileID: 21300000, guid: 6b5901aea39224542b7e47020fa4bd20, type: 3}
    - time: 0.25
      value: {fileID: 21300000, guid: 6834362e092e45549b7c58103c4215a0, type: 3}
    - time: 0.3
      value: {fileID: 21300000, guid: 18f39d2dccce5744aaaa2d74fb7e6b45, type: 3}
    - time: 0.35
      value: {fileID: 21300000, guid: ec0a494b340593748b91eda4f39d5e79, type: 3}
    - time: 0.4
      value: {fileID: 21300000, guid: b10c0ff59839b6e4aa44ff80151a47f7, type: 3}
    - time: 0.45
      value: {fileID: 21300000, guid: bd8ae062dafe4004497570af480cf51b, type: 3}
    attribute: m_Sprite
    path: 
    classID: 212
    script: {fileID: 0}
  m_SampleRate: 60
  m_WrapMode: 0
  m_Bounds:
    m_Center: {x: 0, y: 0, z: 0}
    m_Extent: {x: 0, y: 0, z: 0}
  m_ClipBindingConstant:
    genericBindings:
    - serializedVersion: 2
      path: 0
      attribute: 0
      script: {fileID: 0}
      typeID: 212
      customType: 23
      isPPtrCurve: 1
    pptrCurveMapping:
    - {fileID: 21300000, guid: c5b20d9e47ac12248a1398395b1e929e, type: 3}
    - {fileID: 21300000, guid: 9f459fb85e250e44ba8c84a991ad5eab, type: 3}
    - {fileID: 21300000, guid: 26c63ac2132acfe44b9c63bd84ca1e20, type: 3}
    - {fileID: 21300000, guid: 465a764bc0f5d1941ba5b58f9a600ddb, type: 3}
    - {fileID: 21300000, guid: 6b5901aea39224542b7e47020fa4bd20, type: 3}
    - {fileID: 21300000, guid: 6834362e092e45549b7c58103c4215a0, type: 3}
    - {fileID: 21300000, guid: 18f39d2dccce5744aaaa2d74fb7e6b45, type: 3}
    - {fileID: 21300000, guid: ec0a494b340593748b91eda4f39d5e79, type: 3}
    - {fileID: 21300000, guid: b10c0ff59839b6e4aa44ff80151a47f7, type: 3}
    - {fileID: 21300000, guid: bd8ae062dafe4004497570af480cf51b, type: 3}
  m_AnimationClipSettings:
    serializedVersion: 2
    m_AdditiveReferencePoseClip: {fileID: 0}
    m_AdditiveReferencePoseTime: 0
    m_StartTime: 0
    m_StopTime: 0.46666667
    m_OrientationOffsetY: 0
    m_Level: 0
    m_CycleOffset: 0
    m_HasAdditiveReferencePose: 0
    m_LoopTime: 1
    m_LoopBlend: 0
    m_LoopBlendOrientation: 0
    m_LoopBlendPositionY: 0
    m_LoopBlendPositionXZ: 0
    m_KeepOriginalOrientation: 0
    m_KeepOriginalPositionY: 1
    m_KeepOriginalPositionXZ: 0
    m_HeightFromFeet: 0
    m_Mirror: 0
  m_EditorCurves: []
  m_EulerEditorCurves: []
  m_HasGenericRootTransform: 0
  m_HasMotionFloatCurves: 0
  m_GenerateMotionCurves: 0
  m_Events: []
