%YAML 1.1
%TAG !u! tag:unity3d.com,2011:
--- !u!74 &7400000
AnimationClip:
  m_ObjectHideFlags: 0
  m_CorrespondingSourceObject: {fileID: 0}
  m_PrefabInternal: {fileID: 0}
  m_Name: Player_Idle
  serializedVersion: 6
  m_Legacy: 0
  m_Compressed: 0
  m_UseHighQualityCurve: 1
  m_RotationCurves: []
  m_CompressedRotationCurves: []
  m_EulerCurves: []
  m_PositionCurves: []
  m_ScaleCurves: []
  m_FloatCurves: []
  m_PPtrCurves:
  - curve:
    - time: 0
      value: {fileID: 21300000, guid: a761619f948755749845861d4e93438f, type: 3}
    - time: 0.083333336
      value: {fileID: 21300000, guid: 5ab2ab1901a17704aba6871f6950af39, type: 3}
    - time: 0.15
      value: {fileID: 21300000, guid: 6daa599d327cbc643b9c9049768824b4, type: 3}
    - time: 0.23333333
      value: {fileID: 21300000, guid: 44ae0eb9c772e1f4d9d01a7a5d1bde4d, type: 3}
    - time: 0.3
      value: {fileID: 21300000, guid: 28d9f11643bfcdd438e6882141e83fd9, type: 3}
    - time: 0.36666667
      value: {fileID: 21300000, guid: 808ccbd6078725f439136033b6acca47, type: 3}
    - time: 0.43333334
      value: {fileID: 21300000, guid: 6a1d5cacee56fd04eadbd72222b6b169, type: 3}
    - time: 0.51666665
      value: {fileID: 21300000, guid: d3dc71c04ff97ec45a916d84639cc89d, type: 3}
    - time: 0.5833333
      value: {fileID: 21300000, guid: aed57bb0afd6ffc4c9b1f123e67d7833, type: 3}
    - time: 0.6666667
      value: {fileID: 21300000, guid: c251dfaf7ac5a464280ccd8406f8201a, type: 3}
    attribute: m_Sprite
    path: 
    classID: 212
    script: {fileID: 0}
  m_SampleRate: 60
  m_WrapMode: 0
  m_Bounds:
    m_Center: {x: 0, y: 0, z: 0}
    m_Extent: {x: 0, y: 0, z: 0}
  m_ClipBindingConstant:
    genericBindings:
    - serializedVersion: 2
      path: 0
      attribute: 0
      script: {fileID: 0}
      typeID: 212
      customType: 23
      isPPtrCurve: 1
    pptrCurveMapping:
    - {fileID: 21300000, guid: a761619f948755749845861d4e93438f, type: 3}
    - {fileID: 21300000, guid: 5ab2ab1901a17704aba6871f6950af39, type: 3}
    - {fileID: 21300000, guid: 6daa599d327cbc643b9c9049768824b4, type: 3}
    - {fileID: 21300000, guid: 44ae0eb9c772e1f4d9d01a7a5d1bde4d, type: 3}
    - {fileID: 21300000, guid: 28d9f11643bfcdd438e6882141e83fd9, type: 3}
    - {fileID: 21300000, guid: 808ccbd6078725f439136033b6acca47, type: 3}
    - {fileID: 21300000, guid: 6a1d5cacee56fd04eadbd72222b6b169, type: 3}
    - {fileID: 21300000, guid: d3dc71c04ff97ec45a916d84639cc89d, type: 3}
    - {fileID: 21300000, guid: aed57bb0afd6ffc4c9b1f123e67d7833, type: 3}
    - {fileID: 21300000, guid: c251dfaf7ac5a464280ccd8406f8201a, type: 3}
  m_AnimationClipSettings:
    serializedVersion: 2
    m_AdditiveReferencePoseClip: {fileID: 0}
    m_AdditiveReferencePoseTime: 0
    m_StartTime: 0
    m_StopTime: 0.68333334
    m_OrientationOffsetY: 0
    m_Level: 0
    m_CycleOffset: 0
    m_HasAdditiveReferencePose: 0
    m_LoopTime: 1
    m_LoopBlend: 0
    m_LoopBlendOrientation: 0
    m_LoopBlendPositionY: 0
    m_LoopBlendPositionXZ: 0
    m_KeepOriginalOrientation: 0
    m_KeepOriginalPositionY: 1
    m_KeepOriginalPositionXZ: 0
    m_HeightFromFeet: 0
    m_Mirror: 0
  m_EditorCurves: []
  m_EulerEditorCurves: []
  m_HasGenericRootTransform: 0
  m_HasMotionFloatCurves: 0
  m_GenerateMotionCurves: 0
  m_Events: []
